{
  "iisSettings": {
    "windowsAuthentication": false,
    "anonymousAuthentication": true,
    "iis": {
      "applicationUrl": "http://localhost/GreetaIO.BioAPI",
      "sslPort": 0
    },
    "iisExpress": {
      "applicationUrl": "http://localhost:61280",
      "sslPort": 44319
    }
  },
  "$schema": "http://json.schemastore.org/launchsettings.json",
  "profiles": {
    "IIS Express": {
      "commandName": "IISExpress",
      "launchBrowser": true,
      "launchUrl": "swagger",
      "environmentVariables": {
        "ASPNETCORE_ENVIRONMENT": "Development"
      }
    },
    "GreetaIO.BioAPI": {
      "commandName": "Project",
      "launchBrowser": true,
      "launchUrl": "swagger",
      "environmentVariables": {
        "DOTNET_URLS": "https://localhost:5022;http://localhost:5022 ",
        "DOTNET_ENVIRONMENT": "Development",
        "ASPNETCORE_URLS": "https://localhost:5011;http://localhost:5001 ",
        "ASPNETCORE_ENVIRONMENT": "Development"
      },
      "applicationUrl": "https://localhost:5011;http://localhost:5001"
    },
    "Docker": {
      "commandName": "Docker",
      "launchBrowser": true,
      "launchUrl": "{Scheme}://{ServiceHost}:{ServicePort}/swagger",
      "publishAllPorts": true,
      "useSSL": true
    }
  }
}